%YAML 1.1
%TAG !u! tag:unity3d.com,2011:
--- !u!114 &11400000
MonoBehaviour:
  m_ObjectHideFlags: 0
  m_CorrespondingSourceObject: {fileID: 0}
  m_PrefabInstance: {fileID: 0}
  m_PrefabAsset: {fileID: 0}
  m_GameObject: {fileID: 0}
  m_Enabled: 1
  m_EditorHideFlags: 0
  m_Script: {fileID: 11500000, guid: bbb281ee3bf0b054c82ac2347e9e782c, type: 3}
  m_Name: Audio
  m_EditorClassIdentifier: 
  m_GroupName: Audio
  m_Data:
    m_SerializedData: []
  m_GUID: acf04e4931743394583e412952356693
  m_SerializeEntries:
  - m_GUID: a532068fbdd6e32488cca44791fe0644
    m_Address: Entrance_Pass
    m_ReadOnly: 0
    m_SerializedLabels: []
    m_mainAssetType: UnityEngine.AudioClip, UnityEngine.AudioModule, Version=0.0.0.0,
      Culture=neutral, PublicKeyToken=null
  m_ReadOnly: 0
  m_Settings: {fileID: 11400000, guid: a9501d423c21a6241b325f9adb9223b7, type: 2}
  m_SchemaSet:
    m_Schemas:
    - {fileID: 11400000, guid: 0b51f744ce6fb7f46b9556d44164183e, type: 2}
    - {fileID: 11400000, guid: a07de56a98b8f074b98a7883e79df568, type: 2}
