%YAML 1.1
%TAG !u! tag:unity3d.com,2011:
--- !u!114 &11400000
MonoBehaviour:
  m_ObjectHideFlags: 0
  m_CorrespondingSourceObject: {fileID: 0}
  m_PrefabInstance: {fileID: 0}
  m_PrefabAsset: {fileID: 0}
  m_GameObject: {fileID: 0}
  m_Enabled: 1
  m_EditorHideFlags: 0
  m_Script: {fileID: 11500000, guid: bbb281ee3bf0b054c82ac2347e9e782c, type: 3}
  m_Name: Trails
  m_EditorClassIdentifier: 
  m_GroupName: Trails
  m_Data:
    m_SerializedData: []
  m_GUID: 1d92f4982fd747f4aba8b5fc830f9a58
  m_SerializeEntries:
  - m_GUID: d37a8cdd7623d6048bd6e46a8748e669
    m_Address: Trail_segment
    m_ReadOnly: 0
    m_SerializedLabels: []
    m_mainAssetType: UnityEngine.GameObject, UnityEngine.CoreModule, Version=0.0.0.0,
      Culture=neutral, PublicKeyToken=null
  m_ReadOnly: 0
  m_Settings: {fileID: 11400000, guid: a9501d423c21a6241b325f9adb9223b7, type: 2}
  m_SchemaSet:
    m_Schemas:
    - {fileID: 11400000, guid: f2f77639e34dfd34a93df6c746c7dcbd, type: 2}
    - {fileID: 11400000, guid: e85bd6fdaa2bbdd42a08e85b97d3276f, type: 2}
