%YAML 1.1
%TAG !u! tag:unity3d.com,2011:
--- !u!1001 &2546763503871819628
PrefabInstance:
  m_ObjectHideFlags: 0
  serializedVersion: 2
  m_Modification:
    m_TransformParent: {fileID: 0}
    m_Modifications:
    - target: {fileID: 2860725289590108079, guid: 36bc0ae4775fb62428081c7b606fe402,
        type: 3}
      propertyPath: m_Name
      value: Obstacle_Block_Closed_Both
      objectReference: {fileID: 0}
    - target: {fileID: 1290298501336948156, guid: 36bc0ae4775fb62428081c7b606fe402,
        type: 3}
      propertyPath: m_LocalPosition.x
      value: -0
      objectReference: {fileID: 0}
    - target: {fileID: 1290298501336948156, guid: 36bc0ae4775fb62428081c7b606fe402,
        type: 3}
      propertyPath: m_LocalPosition.y
      value: 0
      objectReference: {fileID: 0}
    - target: {fileID: 1290298501336948156, guid: 36bc0ae4775fb62428081c7b606fe402,
        type: 3}
      propertyPath: m_LocalPosition.z
      value: 0
      objectReference: {fileID: 0}
    - target: {fileID: 1290298501336948156, guid: 36bc0ae4775fb62428081c7b606fe402,
        type: 3}
      propertyPath: m_LocalRotation.x
      value: 0.000000021855694
      objectReference: {fileID: 0}
    - target: {fileID: 1290298501336948156, guid: 36bc0ae4775fb62428081c7b606fe402,
        type: 3}
      propertyPath: m_LocalRotation.y
      value: 0
      objectReference: {fileID: 0}
    - target: {fileID: 1290298501336948156, guid: 36bc0ae4775fb62428081c7b606fe402,
        type: 3}
      propertyPath: m_LocalRotation.z
      value: -0
      objectReference: {fileID: 0}
    - target: {fileID: 1290298501336948156, guid: 36bc0ae4775fb62428081c7b606fe402,
        type: 3}
      propertyPath: m_LocalRotation.w
      value: 1
      objectReference: {fileID: 0}
    - target: {fileID: 1290298501336948156, guid: 36bc0ae4775fb62428081c7b606fe402,
        type: 3}
      propertyPath: m_RootOrder
      value: 0
      objectReference: {fileID: 0}
    - target: {fileID: 1290298501336948156, guid: 36bc0ae4775fb62428081c7b606fe402,
        type: 3}
      propertyPath: m_LocalEulerAnglesHint.x
      value: 0
      objectReference: {fileID: 0}
    - target: {fileID: 1290298501336948156, guid: 36bc0ae4775fb62428081c7b606fe402,
        type: 3}
      propertyPath: m_LocalEulerAnglesHint.y
      value: 0
      objectReference: {fileID: 0}
    - target: {fileID: 1290298501336948156, guid: 36bc0ae4775fb62428081c7b606fe402,
        type: 3}
      propertyPath: m_LocalEulerAnglesHint.z
      value: 0
      objectReference: {fileID: 0}
    - target: {fileID: 7832614182131820426, guid: 36bc0ae4775fb62428081c7b606fe402,
        type: 3}
      propertyPath: m_Mesh
      value: 
      objectReference: {fileID: 6645480086255237566, guid: d3d295dceef4a1749acd68b06f5a68a5,
        type: 3}
    m_RemovedComponents: []
  m_SourcePrefab: {fileID: 100100000, guid: 36bc0ae4775fb62428081c7b606fe402, type: 3}
