%YAML 1.1
%TAG !u! tag:unity3d.com,2011:
--- !u!114 &11400000
MonoBehaviour:
  m_ObjectHideFlags: 0
  m_CorrespondingSourceObject: {fileID: 0}
  m_PrefabInstance: {fileID: 0}
  m_PrefabAsset: {fileID: 0}
  m_GameObject: {fileID: 0}
  m_Enabled: 1
  m_EditorHideFlags: 0
  m_Script: {fileID: 11500000, guid: 468a46d0ae32c3544b7d98094e6448a9, type: 3}
  m_Name: AddressableAssetSettings
  m_EditorClassIdentifier: 
  m_DefaultGroup: caea1b64f371630468ca01d6de2923c5
  m_BuildRemoteCatalog: 0
  m_DisableCatalogUpdateOnStart: 0
  m_UniqueBundleIds: 0
  m_RemoteCatalogBuildPath:
    m_Id: ed691766882f9e5489f729fc4e895cad
  m_RemoteCatalogLoadPath:
    m_Id: fb9001b377d81ee4bb65333ed5f2d2ce
  m_overridePlayerVersion: 
  m_GroupAssets:
  - {fileID: 11400000, guid: 69d2a24dfb71ea947be96a78813ff6e7, type: 2}
  - {fileID: 11400000, guid: 1439cc943c081ae41825a462c28d0cf1, type: 2}
  - {fileID: 11400000, guid: 1a0d6a4ce0a2da14993b52aecc79ea8b, type: 2}
  - {fileID: 11400000, guid: f00c49f72cf8f864b816fbe51b81959f, type: 2}
  - {fileID: 11400000, guid: c3de3481a7a4343408a9a0658af6b677, type: 2}
  m_BuildSettings:
    m_CompileScriptsInVirtualMode: 0
    m_CleanupStreamingAssetsAfterBuilds: 1
    m_LogResourceManagerExceptions: 1
    m_BundleBuildPath: Temp/com.unity.addressables/AssetBundles
  m_ProfileSettings:
    m_Profiles:
    - m_InheritedParent: 
      m_Id: e0fbb4fabceb8a540b5cb370457a5e44
      m_ProfileName: Default
      m_Values:
      - m_Id: ac748eca23d9548408b44461f1a7ce79
        m_Value: '[UnityEditor.EditorUserBuildSettings.activeBuildTarget]'
      - m_Id: 44433092be1fc8542873ef15df93cf48
        m_Value: '[UnityEngine.AddressableAssets.Addressables.BuildPath]/[BuildTarget]'
      - m_Id: 044c46495c9032e449cf401161ececd1
        m_Value: '{UnityEngine.AddressableAssets.Addressables.RuntimePath}/[BuildTarget]'
      - m_Id: ed691766882f9e5489f729fc4e895cad
        m_Value: ServerData/[BuildTarget]
      - m_Id: fb9001b377d81ee4bb65333ed5f2d2ce
        m_Value: http://localhost/[BuildTarget]
    m_ProfileEntryNames:
    - m_Id: ac748eca23d9548408b44461f1a7ce79
      m_Name: BuildTarget
      m_InlineUsage: 0
    - m_Id: 44433092be1fc8542873ef15df93cf48
      m_Name: LocalBuildPath
      m_InlineUsage: 0
    - m_Id: 044c46495c9032e449cf401161ececd1
      m_Name: LocalLoadPath
      m_InlineUsage: 0
    - m_Id: ed691766882f9e5489f729fc4e895cad
      m_Name: RemoteBuildPath
      m_InlineUsage: 0
    - m_Id: fb9001b377d81ee4bb65333ed5f2d2ce
      m_Name: RemoteLoadPath
      m_InlineUsage: 0
    m_ProfileVersion: 1
  m_LabelTable:
    m_LabelNames:
    - default
  m_SchemaTemplates: []
  m_GroupTemplateObjects:
  - {fileID: 11400000, guid: 15305d0777bc476448748248f4897105, type: 2}
  m_InitializationObjects: []
  m_CertificateHandlerType:
    m_AssemblyName: 
    m_ClassName: 
  m_ActivePlayerDataBuilderIndex: 3
  m_DataBuilders:
  - {fileID: 11400000, guid: 667aa28974ff02644b5f1aa9b042fe39, type: 2}
  - {fileID: 11400000, guid: 40121a8afa5a5ec4e80f7dd93ca5981f, type: 2}
  - {fileID: 11400000, guid: 6bff067cf4453c74abb3b809e49d7079, type: 2}
  - {fileID: 11400000, guid: 02d1d1db4d76d7f459c339724db197c0, type: 2}
  m_ActiveProfileId: e0fbb4fabceb8a540b5cb370457a5e44
  m_HostingServicesManager:
    m_HostingServiceInfos: []
    m_Settings: {fileID: 11400000}
    m_NextInstanceId: 0
    m_RegisteredServiceTypeRefs: []
