%YAML 1.1
%TAG !u! tag:unity3d.com,2011:
--- !u!114 &11400000
MonoBehaviour:
  m_ObjectHideFlags: 0
  m_CorrespondingSourceObject: {fileID: 0}
  m_PrefabInstance: {fileID: 0}
  m_PrefabAsset: {fileID: 0}
  m_GameObject: {fileID: 0}
  m_Enabled: 1
  m_EditorHideFlags: 0
  m_Script: {fileID: 11500000, guid: 687699d5c3dc61e4892f96f5309d38b2, type: 3}
  m_Name: Obstacles settings
  m_EditorClassIdentifier: 
  outerRim:
    m_AssetGUID: c346f7e8c2785f14fa77abee20d144a9
    m_SubObjectName: 
  obstacleSegmentsCount: 24
